…
fill_missing=function(x){
    if(!is.vector(x)){
      stop("argument should be a vector")
    }
    replace_na(x,"virginica")
    replace_na(x,mean(x,na.rm=TRUE))
}


iris_with_missing %>% 
  mutate(replace_na(mean(sepal_length,na.rm=TRUE)))
```

    ## # A tibble: 150 × 6
    ##    sepal_length sepal_width petal_length petal_width species `replace_na(mean(s…
    ##           <dbl>       <dbl>        <dbl>       <dbl> <chr>                 <dbl>
    ##  1          5.1         3.5          1.4         0.2 setosa                 5.82
    ##  2          4.9         3            1.4         0.2 setosa                 5.82
    ##  3          4.7         3.2          1.3         0.2 setosa                 5.82
    ##  4          4.6         3.1          1.5        NA   setosa                 5.82
    ##  5          5           3.6          1.4         0.2 setosa                 5.82
    ##  6          5.4         3.9          1.7         0.4 setosa                 5.82
    ##  7         NA           3.4          1.4         0.3 setosa                 5.82
    ##  8          5           3.4          1.5         0.2 setosa                 5.82
    ##  9          4.4         2.9          1.4         0.2 setosa                 5.82
    ## 10          4.9         3.1         NA           0.1 setosa                 5.82
    ## # … with 140 more rows
…
